ejercicios_clase_1
…
Solución ejercicio 2

Seleccione las columnas “anio”, “edad” y “religion”

df[, c("anio", "edad", "religion")]

# A tibble: 21,483 x 3
    anio  edad religion          
   <int> <int> <fct>             
 1  2000    26 Protestante       
 2  2000    48 Protestante       
 3  2000    67 Protestante       
 4  2000    39 Cristiana ortodoxa
 5  2000    25 Ninguna           
 6  2000    25 Protestante       
 7  2000    36 Cristiana         
 8  2000    44 Protestante       
 9  2000    44 Protestante       
10  2000    47 Protestante       
# i 21,473 more rows
…
Solución ejercicio 2

Seleccione las filas donde horas_tv es menor a 5

df[df$horas_tv < 5,]

# A tibble: 19,573 x 9
    anio estado_civil  edad raza  ingreso partido religion denominacion horas_tv
   <int> <fct>        <int> <fct> <fct>   <fct>   <fct>    <fct>           <int>
 1    NA <NA>            NA <NA>  <NA>    <NA>    <NA>     <NA>               NA
 2  2000 Viudo           67 Blan~ No apl~ Indepe~ Protest~ No denomina~        2
 3  2000 Nunca se ha~    39 Blan~ No apl~ Ind, p~ Cristia~ No aplica           4
 4  2000 Divorciado      25 Blan~ No apl~ No fue~ Ninguna  No aplica           1
 5    NA <NA>            NA <NA>  <NA>    <NA>    <NA>     <NA>               NA
 6  2000 Nunca se ha~    36 Blan~ 25000 ~ No fue~ Cristia~ No aplica           3
 7    NA <NA>            NA <NA>  <NA>    <NA>    <NA>     <NA>               NA
 8  2000 Casado          44 Blan~ 25000 ~ No fue~ Protest~ Otra                0
 9  2000 Casado          47 Blan~ 25000 ~ Fuerte~ Protest~ Bautistas d~        3
10  2000 Casado          53 Blan~ 25000 ~ No fue~ Protest~ Otra                2
# i 19,563 more rows
…
